%YAML 1.1
%TAG !u! tag:unity3d.com,2011:
--- !u!29 &1
SceneSettings:
  m_ObjectHideFlags: 0
  m_PVSData: 
  m_PVSObjectsArray: []
  m_PVSPortalsArray: []
  m_OcclusionBakeSettings:
    smallestOccluder: 5
    smallestHole: 0.25
    backfaceThreshold: 100
--- !u!104 &2
RenderSettings:
  m_ObjectHideFlags: 0
  serializedVersion: 6
  m_Fog: 0
  m_FogColor: {r: 0.5, g: 0.5, b: 0.5, a: 1}
  m_FogMode: 3
  m_FogDensity: 0.01
  m_LinearFogStart: 0
  m_LinearFogEnd: 300
  m_AmbientSkyColor: {r: 0.212, g: 0.227, b: 0.259, a: 1}
  m_AmbientEquatorColor: {r: 0.114, g: 0.125, b: 0.133, a: 1}
  m_AmbientGroundColor: {r: 0.047, g: 0.043, b: 0.035, a: 1}
  m_AmbientIntensity: 1
  m_AmbientMode: 0
  m_SkyboxMaterial: {fileID: 10304, guid: 0000000000000000f000000000000000, type: 0}
  m_HaloStrength: 0.5
  m_FlareStrength: 1
  m_FlareFadeSpeed: 3
  m_HaloTexture: {fileID: 0}
  m_SpotCookie: {fileID: 10001, guid: 0000000000000000e000000000000000, type: 0}
  m_DefaultReflectionMode: 0
  m_DefaultReflectionResolution: 128
  m_ReflectionBounces: 1
  m_ReflectionIntensity: 1
  m_CustomReflection: {fileID: 0}
  m_Sun: {fileID: 0}
--- !u!157 &3
LightmapSettings:
  m_ObjectHideFlags: 0
  serializedVersion: 6
  m_GIWorkflowMode: 0
  m_LightmapsMode: 1
  m_GISettings:
    serializedVersion: 2
    m_BounceScale: 1
    m_IndirectOutputScale: 1
    m_AlbedoBoost: 1
    m_TemporalCoherenceThreshold: 1
    m_EnvironmentLightingMode: 0
    m_EnableBakedLightmaps: 1
    m_EnableRealtimeLightmaps: 1
  m_LightmapEditorSettings:
    serializedVersion: 3
    m_Resolution: 2
    m_BakeResolution: 40
    m_TextureWidth: 1024
    m_TextureHeight: 1024
    m_AOMaxDistance: 1
    m_Padding: 2
    m_CompAOExponent: 1
    m_LightmapParameters: {fileID: 0}
    m_TextureCompression: 1
    m_FinalGather: 0
    m_FinalGatherRayCount: 256
    m_ReflectionCompression: 2
  m_LightingDataAsset: {fileID: 0}
  m_RuntimeCPUUsage: 25
--- !u!196 &4
NavMeshSettings:
  serializedVersion: 2
  m_ObjectHideFlags: 0
  m_BuildSettings:
    serializedVersion: 2
    agentRadius: 0.5
    agentHeight: 2
    agentSlope: 45
    agentClimb: 0.4
    ledgeDropHeight: 0
    maxJumpAcrossDistance: 0
    accuratePlacement: 0
    minRegionArea: 2
    cellSize: 0.16666667
    manualCellSize: 0
  m_NavMeshData: {fileID: 0}
--- !u!1 &1799635764
GameObject:
  m_ObjectHideFlags: 0
  m_PrefabParentObject: {fileID: 0}
  m_PrefabInternal: {fileID: 0}
  serializedVersion: 4
  m_Component:
  - 4: {fileID: 1799635766}
  - 114: {fileID: 1799635765}
  m_Layer: 0
  m_Name: Audio Clip Combiner <- Select & Look @ Inspector
  m_TagString: Untagged
  m_Icon: {fileID: 0}
  m_NavMeshLayer: 0
  m_StaticEditorFlags: 0
  m_IsActive: 1
--- !u!114 &1799635765
MonoBehaviour:
  m_ObjectHideFlags: 0
  m_PrefabParentObject: {fileID: 0}
  m_PrefabInternal: {fileID: 0}
  m_GameObject: {fileID: 1799635764}
  m_Enabled: 1
  m_EditorHideFlags: 0
  m_Script: {fileID: 11500000, guid: 1f64b7fd4ff9b4239848cf35362689bb, type: 3}
  m_Name: 
  m_EditorClassIdentifier: 
  outputName: 436f6d62696e656420436c697073
  audioLayers:
  - clip:
    - {fileID: 8300000, guid: 27cf91ff2ae784f9699062dd282e4fb2, type: 3}
    - {fileID: 8300000, guid: f8cc9d32a16f34f909af64e4657bbb3d, type: 3}
    - {fileID: 8300000, guid: 768b4296c3d0743eca96a8dfee203d6a, type: 3}
    expanded: 0
    clipNumber: 0
    name: 4e6f20436c697073204164646564
    volume: 1
    delay: 0
    samples: []
    bytes: []
    sampleCount: 62842
    delayCount: 0
    onClip: 0
  - clip:
    - {fileID: 8300000, guid: 144172088a0ba410db5d0b38c25aeaf3, type: 3}
    - {fileID: 8300000, guid: 2cbf9ae16d35c4430826fd02e55fa070, type: 3}
    - {fileID: 8300000, guid: 1f945569e56604eea97f6ec18a507d9e, type: 3}
    expanded: 0
    clipNumber: 0
    name: 4e6f20436c697073204164646564
    volume: 1
    delay: 0
    samples: []
    bytes: []
    sampleCount: 62842
    delayCount: 0
    onClip: 0
  - clip:
    - {fileID: 8300000, guid: 4b7d74c44c4ed475983887a8358b7067, type: 3}
    - {fileID: 8300000, guid: 51f561bded2db45b0b71158e1568adbe, type: 3}
    - {fileID: 8300000, guid: 2c062083e8f2c4b628f284efb37514cd, type: 3}
    expanded: 0
    clipNumber: 0
    name: 4e6f20436c697073204164646564
    volume: 1
    delay: 0
    samples: []
    bytes: []
    sampleCount: 62842
    delayCount: 0
    onClip: 0
  displayInspector: 1
--- !u!4 &1799635766
Transform:
  m_ObjectHideFlags: 0
  m_PrefabParentObject: {fileID: 0}
  m_PrefabInternal: {fileID: 0}
  m_GameObject: {fileID: 1799635764}
  m_LocalRotation: {x: 0, y: 0, z: 0, w: 1}
  m_LocalPosition: {x: 71.99999, y: 309.6, z: 0}
  m_LocalScale: {x: 1, y: 1, z: 1}
  m_Children: []
  m_Father: {fileID: 0}
  m_RootOrder: 0
